Frt00361  	P	0	427.8	427.8	427.2	427.2	427.8	428.4	428.4	429	429	428.4	428.4	427.8	427.8	430.8	430.8	430.8	430.2	427.8	427.2	427.2	427.2	426	426.6	425.4
Frt00333  	P	0	2610	2605	2607	2590	2606	2607	2606	2604	2603	2603	2943	3062	3717	4071	4071	4069	4071	4090	4105	4125	4119	4126	4114	4117
Frt28516  	P	0	13873.94	13859.59	13859.59	13859.59	13859.59	13859.59	14046.11	13931.32	7008.7	8063.24	11485.1	13995.89	13988.72	13981.54	13644.38	6843.71	6843.71	7919.77	14038.93	14003.06	14017.41	14017.41	14024.58	14031.76
Frt00284  	P	0	1065.7	1121.6	1120.7	1122.5	1117.3	1126.7	1127	1113	1114	1124	1125	1124	1123	1124	1123	1123	1127	1126	1127	1127	1126	1059	1067	1066
Frt00361  	R	0	527.8	527.8	527.2	527.2	527.8	528.4	528.4	529	529	528.4	528.4	527.8	527.8	530.8	530.8	530.8	530.2	527.8	527.2	527.2	527.2	526	526.6	525.4
Frt00333  	R	0	2710	2705	2707	2690	2706	2707	2706	2704	2703	2703	3043	3162	3817	4171	4171	4169	4171	4190	4205	4225	4219	4226	4214	4217
Frt28516  	R	0	13973.94	13959.59	13959.59	13959.59	13959.59	13959.59	14146.11	14031.32	7108.7	8163.24	11585.1	14095.89	14088.72	14081.54	13744.38	6943.71	6943.71	8019.77	14138.93	14103.06	14117.41	14117.41	14124.58	14131.76
